{
  "_class": "symbolInstance",
  "do_objectID": "8B41A6DE-65F4-4CFD-9386-0244D581A06F",
  "exportOptions": {
    "_class": "exportOptions",
    "exportFormats": [
    ],
    "includedLayerIds": [
    ],
    "layerOptions": 0,
    "shouldTrim": false
  },
  "frame": {
    "_class": "rect",
    "constrainProportions": false,
    "height": 16,
    "width": 92,
    "x": 115,
    "y": 23
  },
  "horizontalSpacing": 0,
  "isFlippedHorizontal": false,
  "isFlippedVertical": false,
  "isLocked": false,
  "isVisible": true,
  "layerListExpandedType": 0,
  "masterInfluenceEdgeMaxXPadding": 0,
  "masterInfluenceEdgeMaxYPadding": 0,
  "masterInfluenceEdgeMinXPadding": 0,
  "masterInfluenceEdgeMinYPadding": 0,
  "name": "global-components/labels/issuable-label/small",
  "nameIsFixed": false,
  "overrides": {
    "9FC91C4D-FA44-43A3-9AE2-EE2ED9011F66": "Auto DevOps"
  },
  "resizingConstraint": 63,
  "resizingType": 0,
  "rotation": 0,
  "shouldBreakMaskChain": false,
  "style": {
    "_class": "style",
    "endDecorationType": 0,
    "miterLimit": 10,
    "startDecorationType": 0
  },
  "symbolID": "BE4E8AC2-9522-48FE-826F-AB720F0C8326",
  "verticalSpacing": 0
}